<?php xml version="1.0" encoding="utf-8"?>
<!-- Generator: Adobe Illustrator 16.2.1, SVG Export Plug-In . SVG Version: 6.00 Build 0)  -->
<!DOCTYPE svg PUBLIC "-//W3C//DTD SVG 1.1//EN" "http://www.w3.org/Graphics/SVG/1.1/DTD/svg11.dtd">
<svg version="1.1" id="Layer_1" xmlns="http://www.w3.org/2000/svg" xmlns:xlink="http://www.w3.org/1999/xlink" x="0px" y="0px"
	 width="512px" height="512px" viewBox="0 0 512 512" style="enable-background:new 0 0 512 512;" xml:space="preserve">
<style type="text/css">
<![CDATA[
	.st0{fill:#010101;}
]]>
</style>
<g>
	<g>
		<path class="st0" d="M32,192v128h448V192H32z M160,288H64v-32h96V288z"/>
	</g>
	<g>
		<path class="st0" d="M32,32v128h448V32H32z M160,128H64V96h96V128z"/>
	</g>
	<g>
		<path class="st0" d="M32,352v128h448V352H32z M160,448H64v-32h96V448z"/>
	</g>
</g>
</svg>
