<?php xml version="1.0" encoding="utf-8"?>
<!-- Generator: Adobe Illustrator 16.2.1, SVG Export Plug-In . SVG Version: 6.00 Build 0)  -->
<!DOCTYPE svg PUBLIC "-//W3C//DTD SVG 1.1//EN" "http://www.w3.org/Graphics/SVG/1.1/DTD/svg11.dtd">
<svg version="1.1" id="Layer_1" xmlns="http://www.w3.org/2000/svg" xmlns:xlink="http://www.w3.org/1999/xlink" x="0px" y="0px"
	 width="512px" height="512px" viewBox="0 0 512 512" style="enable-background:new 0 0 512 512;" xml:space="preserve">
<path d="M448.4,208h-344l341.2-68c8.5-1.6,14-9.7,12.4-18.1l-8.9-45.4c-1.6-8.4-9.8-13.8-18.3-12.2L60.7,137.9
	c-8.5,1.6-14,9.7-12.4,18l8.9,45.4c0.6,2.8,2.1,5.2,3.9,7.2c-7.4,1.2-13.1,7.2-13.1,14.9v209.2c0,8.5,7,15.4,15.6,15.4h384.8
	c8.6,0,15.6-6.9,15.6-15.4V223.4C464,214.9,457,208,448.4,208z M305,402.4l-50.7-36.3l-50.7,36.3l19.5-58.4l-50.8-36H235l19.2-58.4
	l19.3,58.4h62.7l-50.8,36L305,402.4z"/>
</svg>
