<?php xml version="1.0" encoding="utf-8"?>
<!-- Generator: Adobe Illustrator 16.2.1, SVG Export Plug-In . SVG Version: 6.00 Build 0)  -->
<!DOCTYPE svg PUBLIC "-//W3C//DTD SVG 1.1//EN" "http://www.w3.org/Graphics/SVG/1.1/DTD/svg11.dtd">
<svg version="1.1" id="Layer_1" xmlns="http://www.w3.org/2000/svg" xmlns:xlink="http://www.w3.org/1999/xlink" x="0px" y="0px"
	 width="512px" height="512px" viewBox="0 0 512 512" style="enable-background:new 0 0 512 512;" xml:space="preserve">
<g>
	<path d="M411.1,256c0-23.9,14.8-42.8,36.9-55.8c-4-13.3-9.3-26.2-15.8-38.2c-24.9,6.5-45-3.2-62-20.2c-16.9-16.9-22.1-37.1-15.6-62
		C342.6,73.3,329.8,68,316.4,64c-13,22.2-36.4,36.9-60.4,36.9c-23.9,0-47.4-14.7-60.4-36.9c-13.4,4-26.2,9.3-38.2,15.8
		c6.5,24.9,1.3,45-15.6,62c-16.9,16.9-37.1,26.7-61.9,20.2C73.3,174,68,186.8,64,200.2c22.2,13,37,31.9,37,55.8
		c0,23.9-14.8,47.4-37,60.4c4,13.4,9.3,26.2,15.8,38.2c24.9-6.5,45-1.3,61.9,15.6c17,16.9,22.1,37.1,15.6,62
		c12.1,6.5,24.8,11.8,38.2,15.8c13-22.2,36.5-36.9,60.4-36.9c23.9,0,47.4,14.7,60.4,36.9c13.4-4,26.2-9.3,38.2-15.8
		c-6.5-24.9-1.3-45,15.6-62c16.9-16.9,37.1-26.7,62-20.2c6.5-12.1,11.8-24.9,15.8-38.2C425.8,298.8,411.1,279.9,411.1,256z
		 M256,354.3c-54.2,0-98.3-44-98.3-98.3c0-54.3,44-98.3,98.3-98.3c54.3,0,98.3,44,98.3,98.3C354.3,310.3,310.3,354.3,256,354.3z"/>
</g>
</svg>
