<?php xml version="1.0" encoding="utf-8"?>
<!-- Generator: Adobe Illustrator 16.2.1, SVG Export Plug-In . SVG Version: 6.00 Build 0)  -->
<!DOCTYPE svg PUBLIC "-//W3C//DTD SVG 1.1//EN" "http://www.w3.org/Graphics/SVG/1.1/DTD/svg11.dtd">
<svg version="1.1" id="Layer_1" xmlns="http://www.w3.org/2000/svg" xmlns:xlink="http://www.w3.org/1999/xlink" x="0px" y="0px"
	 width="512px" height="512px" viewBox="0 0 512 512" style="enable-background:new 0 0 512 512;" xml:space="preserve">
<g>
	<g>
		<g>
			<path d="M374.1,128l-13.6,10.3C384.6,171.2,399,211.9,399,256c0,44.1-14.4,84.8-38.6,117.7l13.6,10.3c26.3-35.7,41.9-80,41.9-128
				C415.9,208,400.4,163.7,374.1,128z"/>
			<path d="M320,351.8c20-26.8,32-59.9,32-95.8s-12-69-32-95.8l-13.6,10.1c17.9,24,28.6,53.6,28.6,85.7s-10.7,61.7-28.6,85.7
				L320,351.8z"/>
			<path d="M273.1,319.9c13.7-17.9,21.9-39.9,21.9-63.9c0-24-8.2-46-21.9-63.9l-13.5,9.8c11.6,15.1,18.5,33.8,18.5,54.1
				s-6.9,38.9-18.5,54.1L273.1,319.9z"/>
		</g>
	</g>
	<polygon points="153.9,216 96,216 96,296 153.9,296 224,352 224,160 	"/>
</g>
</svg>
