<?php xml version="1.0" encoding="utf-8"?>
<!-- Generator: Adobe Illustrator 16.2.1, SVG Export Plug-In . SVG Version: 6.00 Build 0)  -->
<!DOCTYPE svg PUBLIC "-//W3C//DTD SVG 1.1//EN" "http://www.w3.org/Graphics/SVG/1.1/DTD/svg11.dtd">
<svg version="1.1" id="Layer_1" xmlns="http://www.w3.org/2000/svg" xmlns:xlink="http://www.w3.org/1999/xlink" x="0px" y="0px"
	 width="512px" height="512px" viewBox="0 0 512 512" style="enable-background:new 0 0 512 512;" xml:space="preserve">
<g>
	<path d="M256,224c-17.7,0-32,14.3-32,32s14.3,32,32,32c17.7,0,32-14.3,32-32S273.7,224,256,224L256,224z"/>
	<path d="M128.4,224c-17.7,0-32,14.3-32,32s14.3,32,32,32c17.7,0,32-14.3,32-32S146,224,128.4,224L128.4,224z"/>
	<path d="M384,224c-17.7,0-32,14.3-32,32s14.3,32,32,32s32-14.3,32-32S401.7,224,384,224L384,224z"/>
</g>
</svg>
