<?php xml version="1.0" encoding="utf-8"?>
<!-- Generator: Adobe Illustrator 16.2.1, SVG Export Plug-In . SVG Version: 6.00 Build 0)  -->
<!DOCTYPE svg PUBLIC "-//W3C//DTD SVG 1.1//EN" "http://www.w3.org/Graphics/SVG/1.1/DTD/svg11.dtd">
<svg version="1.1" id="Layer_1" xmlns="http://www.w3.org/2000/svg" xmlns:xlink="http://www.w3.org/1999/xlink" x="0px" y="0px"
	 width="512px" height="512px" viewBox="0 0 512 512" style="enable-background:new 0 0 512 512;" xml:space="preserve">
<g>
	<g>
		<g>
			<path d="M256,48C141.1,48,48,141.1,48,256s93.1,208,208,208c114.9,0,208-93.1,208-208S370.9,48,256,48z M256,446.7
				c-105.1,0-190.7-85.5-190.7-190.7S150.9,65.3,256,65.3S446.7,150.9,446.7,256S361.1,446.7,256,446.7z"/>
		</g>
	</g>
	<g>
		<polygon points="264.1,128 247.3,128 247.3,247.9 128,247.9 128,264.7 247.3,264.7 247.3,384 264.1,384 264.1,264.7 384,264.7 
			384,247.9 264.1,247.9 		"/>
	</g>
</g>
</svg>
