<?php xml version="1.0" encoding="utf-8"?>
<!-- Generator: Adobe Illustrator 16.2.1, SVG Export Plug-In . SVG Version: 6.00 Build 0)  -->
<!DOCTYPE svg PUBLIC "-//W3C//DTD SVG 1.1//EN" "http://www.w3.org/Graphics/SVG/1.1/DTD/svg11.dtd">
<svg version="1.1" id="Layer_1" xmlns="http://www.w3.org/2000/svg" xmlns:xlink="http://www.w3.org/1999/xlink" x="0px" y="0px"
	 width="512px" height="512px" viewBox="0 0 512 512" style="enable-background:new 0 0 512 512;" xml:space="preserve">
<path d="M349.7,322.2c-3.1-3.1-8-3-11.3,0L264,388.6V104c0-4.4-3.6-8-8-8c-4.4,0-8,3.6-8,8v284.6l-74.4-66.3
	c-3.4-2.9-8.1-3.2-11.2-0.1c-3.1,3.1-3.3,8.5-0.1,11.4c0,0,87,79.2,88,80s2.8,2.4,5.7,2.4s4.9-1.6,5.7-2.4s88-80,88-80
	c1.5-1.5,2.3-3.6,2.3-5.7C352,325.8,351.2,323.8,349.7,322.2z"/>
</svg>
