<?php xml version="1.0" encoding="utf-8"?>
<!-- Generator: Adobe Illustrator 16.2.1, SVG Export Plug-In . SVG Version: 6.00 Build 0)  -->
<!DOCTYPE svg PUBLIC "-//W3C//DTD SVG 1.1//EN" "http://www.w3.org/Graphics/SVG/1.1/DTD/svg11.dtd">
<svg version="1.1" id="Layer_1" xmlns="http://www.w3.org/2000/svg" xmlns:xlink="http://www.w3.org/1999/xlink" x="0px" y="0px"
	 width="512px" height="512px" viewBox="0 0 512 512" style="enable-background:new 0 0 512 512;" xml:space="preserve">
<g>
	<polygon points="311,407.7 311,104.4 216.2,192 112,192 112,320 216.2,320 	"/>
	<path d="M367.2,355.6c20.5-27.8,32.8-62.3,32.8-99.6c0-37.4-12.3-71.8-32.8-99.6l-20.4,15.3c17.4,23.6,27.8,52.7,27.8,84.3
		c0,31.6-10.4,60.7-27.8,84.3L367.2,355.6z"/>
</g>
</svg>
